fpp3 quickstart guide
…
── Conflicts ───────────────────────────────────────────────── fpp3_conflicts ──
✖ lubridate::date()    masks base::date()
✖ dplyr::filter()      masks stats::filter()
✖ tsibble::intersect() masks base::intersect()
✖ tsibble::interval()  masks lubridate::interval()
✖ dplyr::lag()         masks stats::lag()
✖ tsibble::setdiff()   masks base::setdiff()
✖ tsibble::union()     masks base::union()

testdata <- read_excel("test.xls")

testdata

# A tibble: 100 × 7
   lastz last2z   lasta     i       a  time      z
   <dbl>  <dbl>   <dbl> <dbl>   <dbl> <dbl>  <dbl>
 1 -70.6  -66.5 -1.38       1  0.633      1  -73.5
 2 -73.5  -70.6  0.633      2 -0.0140     2  -75.2
 3 -75.2  -73.5 -0.0140     3 -0.268      3  -76.7
 4 -76.7  -75.2 -0.268      4 -1.58       4  -79.4
 5 -79.4  -76.7 -1.58       5 -1.19       5  -83.3
 6 -83.3  -79.4 -1.19       6 -0.703      6  -87.3
 7 -87.3  -83.3 -0.703      7 -1.49       7  -92.0
 8 -92.0  -87.3 -1.49       8  0.0379     8  -96.0
 9 -96.0  -92.0  0.0379     9 -0.479      9  -99.2
10 -99.2  -96.0 -0.479     10 -0.981     10 -103. 
# ℹ 90 more rows

# creating tsibble. we always need an index, so here it'll be the time col

my_tsibble <- testdata |>
  select(time, z) |>
  as_tsibble(index = time)

my_tsibble

# A tsibble: 100 x 2 [1]
    time      z
   <dbl>  <dbl>
 1     1  -73.5
 2     2  -75.2
 3     3  -76.7
 4     4  -79.4
 5     5  -83.3
 6     6  -87.3
 7     7  -92.0
 8     8  -96.0
 9     9  -99.2
10    10 -103. 
# ℹ 90 more rows
…
Since the hypothesis testing for unit roots indicated a need for differencing, let’s see how we do that now.

Differencing a series

Explicitly differencing a series for modeling purposes is easily done. We’re simply adding a column to our current tsibble that differences our series using the difference() function within mutate() to add a column to our dataframe.

We’ll add a twice-differenced series, z_diff2 as well just to show how easy it is to do so.

my_tsibble <- my_tsibble |>
  mutate(z_diff1 = difference(z, lag = 1),
         z_diff2 = difference(z_diff1))

my_tsibble

# A tsibble: 100 x 4 [1]
    time      z z_diff1 z_diff2
   <dbl>  <dbl>   <dbl>   <dbl>
 1     1  -73.5   NA     NA    
 2     2  -75.2   -1.72  NA    
 3     3  -76.7   -1.48   0.240
 4     4  -79.4   -2.75  -1.27 
 5     5  -83.3   -3.91  -1.16 
 6     6  -87.3   -4.03  -0.127
 7     7  -92.0   -4.67  -0.635
 8     8  -96.0   -3.98   0.692
 9     9  -99.2   -3.24   0.733
10    10 -103.    -3.49  -0.247
# ℹ 90 more rows
…
Of all the models, the MA(3) on the twice-differenced series shows the best GOF statistics and the residuals appear to be white-noise based on graphical inspection and hypothesis testing. So we’d select this model for forecasting.

Forecasting

We can create forecasts with our models using the forecast() function with argument h that says how many points into the future we want to forecast to.

Below we forecast 10 points into the future on the 3 models we fit. If we only want our preferred model’s forecast, we’d simply select that specific model prior to forecasting. We could also just forecast and do filter(.model == "best_model").

model_set |>
  forecast(h = 10)

# A fable: 30 x 4 [1]
# Key:     .model [3]
   .model  time
   <chr>  <dbl>
 1 ar4      101
 2 ar4      102
 3 ar4      103
 4 ar4      104
 5 ar4      105
 6 ar4      106
 7 ar4      107
 8 ar4      108
 9 ar4      109
10 ar4      110
# ℹ 20 more rows
# ℹ 2 more variables: z_diff2 <dist>, .mean <dbl>
